…
* `data.frame` indicates that `dat1` is a data frame. 
* `tbl_df` and `tbl` indicates that `dat1` is a [tibble](http://r4ds.had.co.nz/tibbles.html) which is essentially just a fancy `data.frame`.  Because these are listed first, functionality related to those classes will be used first.

Some people like the `tibble` default and others do not.  If you want to remove the `tibble` class, you can do the following using `as.data.frame()`.  Try some of the exercises using `dat1`  versus `dat1b` to see how they differ.


```r
> # Create dataframe instead of tibble
> dat1b <- as.data.frame(dat1)
> class(dat1b)
[1] "data.frame"
> 
> # Alternatives for viewing the data
> dat1
# A tibble: 890 x 15
      id   age arm   sex   futime fustat    ps   hgb   bmi alkphos   ast
   <dbl> <dbl> <chr> <chr>  <dbl>  <dbl> <dbl> <dbl> <dbl>   <dbl> <dbl>
 1 84681    57 F FO~ Male     799      2     0  11.2    NA     102     7
 2 89253    64 F FO~ Fema~     97      2     1  12.6    NA     272    62
 3 89499    75 F FO~ Fema~    105      2     1  12.5    NA     169    23
 4 90166    54 G IR~ Fema~    878      2     0  10.9    NA     247    23
 5 90291    71 A IFL Male      31      2     2   9.1    NA     304   115
 6 91450    71 F FO~ Fema~   1046      1    NA  NA      NA      NA    NA
 7 91486    66 A IFL Male      60      2     1  10.5    NA     196    39
 8 91504    56 A IFL Male     181      2     1  10.8    NA     252    77
 9 91724    50 G IR~ Male     481      2     1  13.4    NA      69    13
10 92079    43 A IFL Male     149      2    NA  NA      NA      NA    NA
# ... with 880 more rows, and 4 more variables: mdqualitys <dbl>, ageord <chr>,
#   birthdt <date>, resintdt <date>
…
